{
    "success": true,
    "data": [
        {
            "_id": "1f8b23bd-3879-4a66-af08-6d260350f08d",
            "profile": {
                "name": "Owlie"
            },
            "flags": {
                "verifiedUsername": true
            },
            "auth": {
                "local": {
                    "username": "foxowlie"
                }
            },
            "id": "1f8b23bd-3879-4a66-af08-6d260350f08d"
        },
        {
            "_id": "66c7167d-93da-4b01-ba2b-02a9f5070f6d",
            "auth": {
                "local": {
                    "username": "FrAntoine"
                }
            },
            "flags": {
                "verifiedUsername": true
            },
            "profile": {
                "name": "FrAntoine"
            },
            "id": "66c7167d-93da-4b01-ba2b-02a9f5070f6d"
        },
        {
            "_id": "841b8071-42ae-403c-9cc8-36acebd81a91",
            "auth": {
                "local": {
                    "username": "Rodsevich"
                }
            },
            "flags": {
                "verifiedUsername": true
            },
            "profile": {
                "name": "Nico Rodsevich 🇦🇷"
            },
            "id": "841b8071-42ae-403c-9cc8-36acebd81a91"
        },
        {
            "_id": "fd2a05cd-21e0-4508-bfea-22c74951bde1",
            "auth": {
                "local": {
                    "username": "OurArmor"
                }
            },
            "flags": {
                "verifiedUsername": true
            },
            "profile": {
                "name": "ռɨӄǟɛʟ"
            },
            "id": "fd2a05cd-21e0-4508-bfea-22c74951bde1"
        }
    ],
    "notifications": [
        {
            "id": "e62627c8-0973-4348-b19c-f51edeabb0c6",
            "data": {
                "headerText": "Tu invitación ha sido Aceptada",
                "bodyText": "Ulica Sezamkowa aceptada tu invitación a El Equipo de Nico Rodsevich!"
            },
            "seen": false,
            "type": "GROUP_INVITE_ACCEPTED"
        },
        {
            "id": "118564d4-aff4-4457-bd2f-6067a609ab0b",
            "data": {
                "headerText": "Tu invitación ha sido Aceptada",
                "bodyText": "CrabSkin aceptada tu invitación a El Equipo de Nico Rodsevich!"
            },
            "seen": false,
            "type": "GROUP_INVITE_ACCEPTED"
        },
        {
            "id": "c4c48e18-65c3-44d4-8fae-92e8223cb5dd",
            "data": {
                "headerText": "Tu invitación ha sido Aceptada",
                "bodyText": "Buranku aceptada tu invitación a El Equipo de Nico Rodsevich!"
            },
            "seen": false,
            "type": "GROUP_INVITE_ACCEPTED"
        },
        {
            "id": "69b4276c-c154-4786-954e-fa3dce64a034",
            "data": {
                "headerText": "Tu invitación ha sido Aceptada",
                "bodyText": "Katie aceptada tu invitación a Party Wanted International!"
            },
            "seen": false,
            "type": "GROUP_INVITE_ACCEPTED"
        },
        {
            "id": "58a70a12-7da6-4704-aaef-30b76d08cbeb",
            "data": {
                "headerText": "Tu invitación ha sido Aceptada",
                "bodyText": "Berend95 aceptada tu invitación a Party Wanted International!"
            },
            "seen": false,
            "type": "GROUP_INVITE_ACCEPTED"
        },
        {
            "id": "5e791e1c-b877-4370-a59a-c16bc8c96fcd",
            "data": {
                "headerText": "Tu invitación ha sido Aceptada",
                "bodyText": "DanW aceptada tu invitación a El Equipo de Nico Rodsevich!"
            },
            "seen": false,
            "type": "GROUP_INVITE_ACCEPTED"
        },
        {
            "id": "f78e4e7d-9f07-4a52-8a34-b50a5082f26a",
            "data": {
                "headerText": "Tu invitación ha sido Aceptada",
                "bodyText": "LucianaMoran aceptada tu invitación a El Equipo de Nico Rodsevich!"
            },
            "seen": false,
            "type": "GROUP_INVITE_ACCEPTED"
        },
        {
            "id": "6e8dda01-70d2-4741-84bc-febc3bc653e9",
            "data": {
                "headerText": "Tu invitación ha sido Aceptada",
                "bodyText": "EmilyBalto aceptada tu invitación a El Equipo de Nico Rodsevich!"
            },
            "seen": false,
            "type": "GROUP_INVITE_ACCEPTED"
        },
        {
            "id": "6c47e3e2-0840-44ae-8fc8-2538d892b276",
            "data": {
                "headerText": "Tu invitación ha sido Aceptada",
                "bodyText": "Vix227 aceptada tu invitación a Party Wanted International!"
            },
            "seen": false,
            "type": "GROUP_INVITE_ACCEPTED"
        },
        {
            "id": "ec0e6d44-de62-442a-93f7-058e04937940",
            "data": {
                "headerText": "Tu invitación ha sido Aceptada",
                "bodyText": "Errtitoluis aceptada tu invitación a El Equipo de Nico Rodsevich!"
            },
            "seen": false,
            "type": "GROUP_INVITE_ACCEPTED"
        },
        {
            "id": "58eb9484-7e2c-4d08-b97d-70a14004113d",
            "data": {
                "headerText": "Tu invitación ha sido Aceptada",
                "bodyText": "JimeArcando96 aceptada tu invitación a El Equipo de Nico Rodsevich!"
            },
            "seen": false,
            "type": "GROUP_INVITE_ACCEPTED"
        },
        {
            "id": "a53b4427-84c9-492a-9d80-762f36c26f93",
            "data": {
                "headerText": "Tu invitación ha sido Aceptada",
                "bodyText": "noiryqueen aceptada tu invitación a El Equipo de Nico Rodsevich!"
            },
            "seen": false,
            "type": "GROUP_INVITE_ACCEPTED"
        },
        {
            "id": "b2df2c1d-6010-4f49-b059-2eacdac9fbb0",
            "data": {
                "headerText": "Tu invitación ha sido Aceptada",
                "bodyText": "barita aceptada tu invitación a El Equipo de Nico Rodsevich!"
            },
            "seen": false,
            "type": "GROUP_INVITE_ACCEPTED"
        },
        {
            "id": "cbc0f181-ae16-4fd8-92d3-75bf29d803d5",
            "data": {
                "headerText": "Tu invitación ha sido Aceptada",
                "bodyText": "Alyssa Conde aceptada tu invitación a Party Wanted International!"
            },
            "seen": false,
            "type": "GROUP_INVITE_ACCEPTED"
        },
        {
            "id": "050acbc0-fcbd-47ef-b71e-d0f9900ecdd2",
            "data": {
                "headerText": "Tu invitación ha sido Aceptada",
                "bodyText": "peachu aceptada tu invitación a El Equipo de Nico Rodsevich!"
            },
            "seen": false,
            "type": "GROUP_INVITE_ACCEPTED"
        },
        {
            "id": "0d20638c-bfa0-4a98-86ca-a6fc1deb9997",
            "data": {
                "headerText": "Tu invitación ha sido Aceptada",
                "bodyText": "Katie aceptada tu invitación a El Equipo de Nico Rodsevich!"
            },
            "seen": false,
            "type": "GROUP_INVITE_ACCEPTED"
        },
        {
            "id": "6b403e14-537d-491a-8ca1-424f0ec0ee38",
            "data": {
                "headerText": "Tu invitación ha sido Aceptada",
                "bodyText": "ahokaku aceptada tu invitación a El Equipo de Nico Rodsevich!"
            },
            "seen": false,
            "type": "GROUP_INVITE_ACCEPTED"
        },
        {
            "id": "15152e4d-b604-46c3-a744-5e5bb980cb58",
            "data": {
                "headerText": "Tu invitación ha sido Aceptada",
                "bodyText": "Alicia aceptada tu invitación a Party Wanted International!"
            },
            "seen": false,
            "type": "GROUP_INVITE_ACCEPTED"
        },
        {
            "id": "62c84287-7569-4e0d-b131-2de83b24ba54",
            "data": {
                "headerText": "Tu invitación ha sido Aceptada",
                "bodyText": "KaizenIzuna aceptada tu invitación a El Equipo de Nico Rodsevich!"
            },
            "seen": false,
            "type": "GROUP_INVITE_ACCEPTED"
        },
        {
            "id": "aecc09e2-30e2-4d12-bd0d-96737150f447",
            "data": {
                "headerText": "Tu invitación ha sido Aceptada",
                "bodyText": "Mrgrandrew aceptada tu invitación a El Equipo de Nico Rodsevich!"
            },
            "seen": false,
            "type": "GROUP_INVITE_ACCEPTED"
        },
        {
            "id": "029b0fb5-8af9-476b-9129-7511f6ccec70",
            "data": {
                "headerText": "Tu invitación ha sido Aceptada",
                "bodyText": "wordlord aceptada tu invitación a El Equipo de Nico Rodsevich!"
            },
            "seen": false,
            "type": "GROUP_INVITE_ACCEPTED"
        },
        {
            "id": "a32034f8-e0a3-49d3-b5c8-a4cba6b27b37",
            "data": {
                "headerText": "Tu invitación ha sido Aceptada",
                "bodyText": "Coqulaz aceptada tu invitación a El Equipo de Nico Rodsevich!"
            },
            "seen": false,
            "type": "GROUP_INVITE_ACCEPTED"
        },
        {
            "id": "f434ea08-d67e-430b-add0-6ecc16a272fd",
            "data": {
                "headerText": "Tu invitación ha sido Aceptada",
                "bodyText": "mardy aceptada tu invitación a El Equipo de Nico Rodsevich!"
            },
            "seen": false,
            "type": "GROUP_INVITE_ACCEPTED"
        },
        {
            "id": "7ce74161-0454-4b4a-bd4f-bc1eb36f42f4",
            "data": {
                "headerText": "Tu invitación ha sido Aceptada",
                "bodyText": "Yidramon aceptada tu invitación a El Equipo de Nico Rodsevich!"
            },
            "seen": false,
            "type": "GROUP_INVITE_ACCEPTED"
        },
        {
            "id": "b4d3be7e-1b04-488a-aed0-58e1cd9877a6",
            "data": {
                "headerText": "Tu invitación ha sido Aceptada",
                "bodyText": "MadameMulgrave aceptada tu invitación a El Equipo de Nico Rodsevich!"
            },
            "seen": false,
            "type": "GROUP_INVITE_ACCEPTED"
        },
        {
            "id": "3b8da841-3688-4682-802c-43475e073b46",
            "data": {
                "headerText": "Tu invitación ha sido Aceptada",
                "bodyText": "ShadowCastDemon aceptada tu invitación a El Equipo de Nico Rodsevich!"
            },
            "seen": false,
            "type": "GROUP_INVITE_ACCEPTED"
        },
        {
            "id": "f14afb67-e2a3-4973-9dc6-7d3df3265c61",
            "data": {
                "headerText": "Tu invitación ha sido Aceptada",
                "bodyText": "Erin aceptada tu invitación a El Equipo de Nico Rodsevich!"
            },
            "seen": false,
            "type": "GROUP_INVITE_ACCEPTED"
        },
        {
            "id": "845aeb16-ef28-4897-9cc1-c5e54cecf39b",
            "data": {
                "headerText": "Tu invitación ha sido Aceptada",
                "bodyText": "Padz aceptada tu invitación a El Equipo de Nico Rodsevich!"
            },
            "seen": false,
            "type": "GROUP_INVITE_ACCEPTED"
        },
        {
            "id": "f68e76c9-080c-4a3a-b569-770eaf99fe9b",
            "data": {
                "headerText": "Tu invitación ha sido Aceptada",
                "bodyText": "Ariel Dalziel aceptada tu invitación a El Equipo de Nico Rodsevich!"
            },
            "seen": false,
            "type": "GROUP_INVITE_ACCEPTED"
        },
        {
            "id": "5e0141ba-d4e3-4b4d-8cd5-aaad1b3ff85a",
            "data": {
                "headerText": "Tu invitación ha sido Aceptada",
                "bodyText": "Mare Bear aceptada tu invitación a El Equipo de Nico Rodsevich!"
            },
            "seen": false,
            "type": "GROUP_INVITE_ACCEPTED"
        },
        {
            "id": "01505cb2-5c7a-40fe-b18d-0879f145bcc6",
            "data": {
                "headerText": "Tu invitación ha sido Aceptada",
                "bodyText": "Dragernzz aceptada tu invitación a El Equipo de Nico Rodsevich!"
            },
            "seen": false,
            "type": "GROUP_INVITE_ACCEPTED"
        },
        {
            "id": "7d0ec94f-4d53-4600-a839-66b5c5bc11d0",
            "data": {
                "headerText": "Tu invitación ha sido Aceptada",
                "bodyText": "Arkanute aceptada tu invitación a El Equipo de Nico Rodsevich!"
            },
            "seen": false,
            "type": "GROUP_INVITE_ACCEPTED"
        },
        {
            "id": "3367e1d2-5d72-45e8-97ff-f5a0a35f3705",
            "data": {
                "headerText": "Tu invitación ha sido Aceptada",
                "bodyText": "GisyBlackbow aceptada tu invitación a Argentinos!"
            },
            "seen": false,
            "type": "GROUP_INVITE_ACCEPTED"
        },
        {
            "id": "59ed9186-20cc-4d57-8832-8e9732d3c6b2",
            "data": {
                "headerText": "Tu invitación ha sido Aceptada",
                "bodyText": "Javier Vanadia8 aceptada tu invitación a Argentinos!"
            },
            "seen": false,
            "type": "GROUP_INVITE_ACCEPTED"
        },
        {
            "id": "20ec4e3c-b5ca-42ff-a203-a3124a95dee1",
            "data": {
                "headerText": "Tu invitación ha sido Aceptada",
                "bodyText": "JimeArcando96 aceptada tu invitación a Argentinos!"
            },
            "seen": false,
            "type": "GROUP_INVITE_ACCEPTED"
        },
        {
            "id": "facefd2a-bf68-4a83-bf44-b90c637b8525",
            "data": {
                "headerText": "Tu invitación ha sido Aceptada",
                "bodyText": "Janny aceptada tu invitación a El Equipo de Nico Rodsevich!"
            },
            "seen": false,
            "type": "GROUP_INVITE_ACCEPTED"
        },
        {
            "id": "0a2f92cb-1eb0-4caf-8821-f2ccb2400edb",
            "data": {
                "headerText": "Tu invitación ha sido Aceptada",
                "bodyText": "ZmirBurger aceptada tu invitación a El Equipo de Nico Rodsevich!"
            },
            "seen": false,
            "type": "GROUP_INVITE_ACCEPTED"
        },
        {
            "id": "8969503f-5a9d-4041-b6d6-5998e9dd254b",
            "data": {
                "headerText": "Tu invitación ha sido Aceptada",
                "bodyText": "LucianaMoran aceptada tu invitación a Argentinos!"
            },
            "seen": false,
            "type": "GROUP_INVITE_ACCEPTED"
        },
        {
            "id": "5f18e486-f188-42d7-8e72-f7dff26419b8",
            "data": {
                "headerText": "Tu invitación ha sido Aceptada",
                "bodyText": "Lyria aceptada tu invitación a El Equipo de Nico Rodsevich!"
            },
            "seen": false,
            "type": "GROUP_INVITE_ACCEPTED"
        },
        {
            "id": "45b03855-d1f2-4574-a8b7-78e57a005359",
            "data": {
                "headerText": "Tu invitación ha sido Aceptada",
                "bodyText": "Maximum Whimsicott aceptada tu invitación a El Equipo de Nico Rodsevich!"
            },
            "seen": false,
            "type": "GROUP_INVITE_ACCEPTED"
        },
        {
            "id": "78772b65-ee0c-4b28-bf56-0ecffef6305c",
            "data": {
                "headerText": "Tu invitación ha sido Aceptada",
                "bodyText": "Sean Diao aceptada tu invitación a El Equipo de Nico Rodsevich!"
            },
            "seen": false,
            "type": "GROUP_INVITE_ACCEPTED"
        },
        {
            "id": "c167a80a-033d-40e3-a75c-43dd7a723c76",
            "data": {
                "headerText": "Tu invitación ha sido Aceptada",
                "bodyText": "Mrgrandrew aceptada tu invitación a El Equipo de Nico Rodsevich!"
            },
            "seen": false,
            "type": "GROUP_INVITE_ACCEPTED"
        },
        {
            "id": "41e1d8f1-2483-4a28-9430-9ca3c9be9ef9",
            "data": {
                "headerText": "Tu invitación ha sido Aceptada",
                "bodyText": "CoolRekterizer aceptada tu invitación a El Equipo de Nico Rodsevich!"
            },
            "seen": false,
            "type": "GROUP_INVITE_ACCEPTED"
        },
        {
            "id": "4a1d28de-e984-4abf-b486-9963febbdaeb",
            "data": {
                "headerText": "Tu invitación ha sido Aceptada",
                "bodyText": "PunManStan aceptada tu invitación a El Equipo de Nico Rodsevich!"
            },
            "seen": false,
            "type": "GROUP_INVITE_ACCEPTED"
        },
        {
            "id": "2bb9739b-394a-4b4f-8d2e-137cd96dbca1",
            "data": {
                "headerText": "Tu invitación ha sido Aceptada",
                "bodyText": "Daniel aceptada tu invitación a El Equipo de Nico Rodsevich!"
            },
            "seen": false,
            "type": "GROUP_INVITE_ACCEPTED"
        },
        {
            "id": "cf5d225a-5a32-4fc2-9763-68e7fcbe3f00",
            "data": {
                "headerText": "Tu invitación ha sido Aceptada",
                "bodyText": "Glamazon aceptada tu invitación a El Equipo de Nico Rodsevich!"
            },
            "seen": false,
            "type": "GROUP_INVITE_ACCEPTED"
        },
        {
            "id": "1aa7f846-a85f-4c6d-8c6f-0de9e42f6b4f",
            "data": {
                "headerText": "Tu invitación ha sido Aceptada",
                "bodyText": "Timohi aceptada tu invitación a El Equipo de Nico Rodsevich!"
            },
            "seen": false,
            "type": "GROUP_INVITE_ACCEPTED"
        },
        {
            "id": "8450f260-0347-4d15-acec-0021f341c4f9",
            "data": {
                "headerText": "Tu invitación ha sido Aceptada",
                "bodyText": "Victoria aceptada tu invitación a El Equipo de Nico Rodsevich!"
            },
            "seen": false,
            "type": "GROUP_INVITE_ACCEPTED"
        },
        {
            "id": "2a27e851-db3a-421d-848e-0a7da17bfb52",
            "data": {
                "headerText": "Tu invitación ha sido Aceptada",
                "bodyText": "Bubsy08 aceptada tu invitación a El Equipo de Nico Rodsevich!"
            },
            "seen": false,
            "type": "GROUP_INVITE_ACCEPTED"
        },
        {
            "id": "5c208097-57da-4f4d-a43c-8178ba305103",
            "data": {
                "headerText": "Tu invitación ha sido Aceptada",
                "bodyText": "Aukrit L. aceptada tu invitación a El Equipo de Nico Rodsevich!"
            },
            "seen": false,
            "type": "GROUP_INVITE_ACCEPTED"
        },
        {
            "id": "313da574-8eec-4227-a017-73e2a0e2e41c",
            "data": {
                "headerText": "Tu invitación ha sido Aceptada",
                "bodyText": "xPancraciox aceptada tu invitación a 🇦🇷Argentinos🇦🇷!"
            },
            "seen": false,
            "type": "GROUP_INVITE_ACCEPTED"
        },
        {
            "id": "90cddd98-7938-4382-b95c-18ef8db3eba9",
            "data": {
                "headerText": "Tu invitación ha sido Aceptada",
                "bodyText": "Lyria aceptada tu invitación a 🇦🇷Argentinos🇦🇷!"
            },
            "seen": false,
            "type": "GROUP_INVITE_ACCEPTED"
        },
        {
            "id": "3b39228d-0a08-40ea-b394-3b16325a790d",
            "data": {
                "headerText": "Tu invitación ha sido Aceptada",
                "bodyText": "Josluk aceptada tu invitación a El Equipo de Nico Rodsevich!"
            },
            "seen": false,
            "type": "GROUP_INVITE_ACCEPTED"
        },
        {
            "id": "19567038-a48d-4ddf-b0a7-f80ebb6999e5",
            "data": {
                "headerText": "Tu invitación ha sido Aceptada",
                "bodyText": "Jadwiga aceptada tu invitación a El Equipo de Nico Rodsevich!"
            },
            "seen": false,
            "type": "GROUP_INVITE_ACCEPTED"
        },
        {
            "id": "33bfa422-dbfd-4271-824b-8bfc796ed7fa",
            "data": {
                "headerText": "Tu invitación ha sido Aceptada",
                "bodyText": "Dave aceptada tu invitación a El Equipo de Nico Rodsevich!"
            },
            "seen": false,
            "type": "GROUP_INVITE_ACCEPTED"
        },
        {
            "id": "3310fee4-eba8-4d14-a5c9-d9bac6b2f1c7",
            "data": {
                "headerText": "Tu invitación ha sido Aceptada",
                "bodyText": "silentmist aceptada tu invitación a El Equipo de Nico Rodsevich!"
            },
            "seen": false,
            "type": "GROUP_INVITE_ACCEPTED"
        },
        {
            "id": "0e701d6b-6a51-4739-b635-72159a924842",
            "data": {
                "headerText": "Tu invitación ha sido Aceptada",
                "bodyText": "Bytex aceptada tu invitación a El Equipo de Nico Rodsevich!"
            },
            "seen": false,
            "type": "GROUP_INVITE_ACCEPTED"
        },
        {
            "id": "13186473-be6c-4ec1-9d77-5f91755df766",
            "data": {
                "headerText": "Tu invitación ha sido Aceptada",
                "bodyText": "KWolf911 aceptada tu invitación a El Equipo de Nico Rodsevich!"
            },
            "seen": false,
            "type": "GROUP_INVITE_ACCEPTED"
        },
        {
            "id": "e0abc0e9-b96b-4ae4-842c-4d4875f8ee9c",
            "data": {
                "headerText": "Tu invitación ha sido Aceptada",
                "bodyText": "Dutora aceptada tu invitación a El Equipo de Nico Rodsevich!"
            },
            "seen": false,
            "type": "GROUP_INVITE_ACCEPTED"
        },
        {
            "id": "9aec3f21-5b82-4bf9-b73b-d4551f29d3ba",
            "data": {
                "headerText": "Tu invitación ha sido Aceptada",
                "bodyText": "SoundandFury aceptada tu invitación a El Equipo de Nico Rodsevich!"
            },
            "seen": false,
            "type": "GROUP_INVITE_ACCEPTED"
        },
        {
            "id": "c4fac3a3-02ad-463b-a95f-a8fd433a38ca",
            "data": {
                "headerText": "Tu invitación ha sido Aceptada",
                "bodyText": "Lewis 1000 aceptada tu invitación a El Equipo de Nico Rodsevich!"
            },
            "seen": false,
            "type": "GROUP_INVITE_ACCEPTED"
        },
        {
            "id": "a449f75e-efe4-41d4-99e5-a4eebff9211d",
            "data": {
                "headerText": "Tu invitación ha sido Aceptada",
                "bodyText": "Victor aceptada tu invitación a El Equipo de Nico Rodsevich!"
            },
            "seen": false,
            "type": "GROUP_INVITE_ACCEPTED"
        },
        {
            "id": "71dee290-0ccd-4110-b70c-e0ca3319d564",
            "data": {
                "headerText": "Tu invitación ha sido Aceptada",
                "bodyText": "The Duke of Disorder aceptada tu invitación a El Equipo de Nico Rodsevich!"
            },
            "seen": false,
            "type": "GROUP_INVITE_ACCEPTED"
        },
        {
            "id": "9bfa33d2-d12c-4b23-953e-1e31d817e91d",
            "data": {
                "headerText": "Tu invitación ha sido Aceptada",
                "bodyText": "bethoozles aceptada tu invitación a El Equipo de Nico Rodsevich!"
            },
            "seen": false,
            "type": "GROUP_INVITE_ACCEPTED"
        },
        {
            "id": "e09bf092-05f4-4927-908d-ac59bab48f19",
            "data": {
                "headerText": "Tu invitación ha sido Aceptada",
                "bodyText": "Jimbo3000 aceptada tu invitación a El Equipo de Nico Rodsevich!"
            },
            "seen": false,
            "type": "GROUP_INVITE_ACCEPTED"
        },
        {
            "id": "80cc7aae-4c1b-4363-96fd-59b8a6be6063",
            "data": {
                "headerText": "Tu invitación ha sido Aceptada",
                "bodyText": "Ree aceptada tu invitación a El Equipo de Nico Rodsevich!"
            },
            "seen": false,
            "type": "GROUP_INVITE_ACCEPTED"
        },
        {
            "id": "3f135cf8-b3da-4e9d-8a07-c54a725af233",
            "data": {
                "headerText": "Tu invitación ha sido Aceptada",
                "bodyText": "Armando aceptada tu invitación a El Equipo de Nico Rodsevich!"
            },
            "seen": false,
            "type": "GROUP_INVITE_ACCEPTED"
        },
        {
            "id": "e9a1b1ca-735c-4c42-9046-16eff02a1baa",
            "data": {
                "headerText": "Tu invitación ha sido Aceptada",
                "bodyText": "Flor Kane🇦🇷 aceptada tu invitación a El Equipo de Nico Rodsevich!"
            },
            "seen": false,
            "type": "GROUP_INVITE_ACCEPTED"
        },
        {
            "id": "fa1bc3fa-efa5-4841-b86f-ddd92a616051",
            "data": {
                "headerText": "Tu invitación ha sido Aceptada",
                "bodyText": "lulucos aceptada tu invitación a El Equipo de Nico Rodsevich!"
            },
            "seen": false,
            "type": "GROUP_INVITE_ACCEPTED"
        },
        {
            "id": "3fb8ed27-8ca0-4a3e-ab69-951e21159787",
            "data": {
                "headerText": "Tu invitación ha sido Aceptada",
                "bodyText": "Leandro Rojo aceptada tu invitación a El Equipo de Nico Rodsevich!"
            },
            "seen": false,
            "type": "GROUP_INVITE_ACCEPTED"
        },
        {
            "id": "c831103c-cc19-4a64-aecb-0d97ed1615c7",
            "data": {
                "headerText": "Tu invitación ha sido Aceptada",
                "bodyText": "HabitCaterpillar aceptada tu invitación a El Equipo de Nico Rodsevich!"
            },
            "seen": false,
            "type": "GROUP_INVITE_ACCEPTED"
        },
        {
            "id": "05f99919-92ea-46fa-a8d5-7f410541e879",
            "data": {
                "headerText": "Tu invitación ha sido Aceptada",
                "bodyText": "ezia aceptada tu invitación a El Equipo de Nico Rodsevich!"
            },
            "seen": false,
            "type": "GROUP_INVITE_ACCEPTED"
        },
        {
            "id": "a94e35ba-6a3b-4761-90ec-8366e95e394a",
            "data": {
                "headerText": "Tu invitación ha sido Aceptada",
                "bodyText": "ferksr aceptada tu invitación a El Equipo de Nico Rodsevich!"
            },
            "seen": false,
            "type": "GROUP_INVITE_ACCEPTED"
        },
        {
            "id": "fc3012bc-1cd8-4a7b-91c9-886d957c72cf",
            "data": {
                "headerText": "Tu invitación ha sido Aceptada",
                "bodyText": "OmarCardenasL aceptada tu invitación a El Equipo de Nico Rodsevich!"
            },
            "seen": false,
            "type": "GROUP_INVITE_ACCEPTED"
        },
        {
            "id": "90d5a5a8-ce94-41b6-96fe-ae17c361c8b0",
            "data": {
                "headerText": "Tu invitación ha sido Aceptada",
                "bodyText": "kali9105 aceptada tu invitación a El Equipo de Nico Rodsevich!"
            },
            "seen": false,
            "type": "GROUP_INVITE_ACCEPTED"
        },
        {
            "id": "8ba54d8a-5d5a-4cae-9f4c-be5b54debd4b",
            "data": {
                "headerText": "Tu invitación ha sido Aceptada",
                "bodyText": "marulachi aceptada tu invitación a El Equipo de Nico Rodsevich!"
            },
            "seen": false,
            "type": "GROUP_INVITE_ACCEPTED"
        },
        {
            "id": "b70e272e-8236-47ec-811b-6301795a10c8",
            "data": {
                "headerText": "Tu invitación ha sido Aceptada",
                "bodyText": "bet.i aceptada tu invitación a El Equipo de Nico Rodsevich!"
            },
            "seen": false,
            "type": "GROUP_INVITE_ACCEPTED"
        },
        {
            "id": "e3ac31b6-fc88-40e4-bd8d-a6733e43dbbe",
            "data": {
                "headerText": "Tu invitación ha sido Aceptada",
                "bodyText": "mxchx aceptada tu invitación a El Equipo de Nico Rodsevich!"
            },
            "seen": false,
            "type": "GROUP_INVITE_ACCEPTED"
        },
        {
            "id": "91ff3264-9556-4755-bf87-1db15b4e7722",
            "data": {
                "headerText": "Tu invitación ha sido Aceptada",
                "bodyText": "Entgkar aceptada tu invitación a El Equipo de Nico Rodsevich!"
            },
            "seen": false,
            "type": "GROUP_INVITE_ACCEPTED"
        },
        {
            "id": "d7ac2a6e-34ca-4f0c-80e9-7941f9df56a5",
            "data": {
                "headerText": "Tu invitación ha sido Aceptada",
                "bodyText": "Judiihh aceptada tu invitación a El Equipo de Nico Rodsevich!"
            },
            "seen": false,
            "type": "GROUP_INVITE_ACCEPTED"
        },
        {
            "id": "2a88d9f8-3533-419b-a45d-59b6bdae3f8e",
            "data": {
                "headerText": "Tu invitación ha sido Aceptada",
                "bodyText": "Fernan aceptada tu invitación a El Equipo de Nico Rodsevich!"
            },
            "seen": false,
            "type": "GROUP_INVITE_ACCEPTED"
        },
        {
            "id": "c7fd2028-b0de-4a55-b859-41308f166d78",
            "data": {
                "headerText": "Tu invitación ha sido Aceptada",
                "bodyText": "Fernan aceptada tu invitación a 🇦🇷Argentinos🇦🇷!"
            },
            "seen": false,
            "type": "GROUP_INVITE_ACCEPTED"
        },
        {
            "id": "6e8ab17f-ce47-4b63-86b5-40efda9b1b33",
            "data": {
                "headerText": "Tu invitación ha sido Aceptada",
                "bodyText": "Sorrasit Bunluehan aceptada tu invitación a El Equipo de Nico Rodsevich!"
            },
            "seen": false,
            "type": "GROUP_INVITE_ACCEPTED"
        },
        {
            "id": "4119aa78-42ad-4603-b646-872bbba3b8cd",
            "data": {
                "headerText": "Tu invitación ha sido Aceptada",
                "bodyText": "Fionelle aceptada tu invitación a El Equipo de Nico Rodsevich!"
            },
            "seen": false,
            "type": "GROUP_INVITE_ACCEPTED"
        },
        {
            "id": "2c44ef6f-446b-4875-affd-e71cc9567213",
            "data": {
                "group": {
                    "id": "68d4a01e-db97-4786-8ee3-05d612c5af6f",
                    "name": "Aspiring Blacksmiths (Coding For Habitica)"
                }
            },
            "seen": true,
            "type": "NEW_CHAT_MESSAGE"
        },
        {
            "id": "6739d5f9-4313-40ad-a878-f49583b14477",
            "data": {
                "group": {
                    "id": "e8b871ff-9f8e-4dfd-96be-b13f02c25b30",
                    "name": "🏂 🎯 Flow"
                }
            },
            "seen": false,
            "type": "NEW_CHAT_MESSAGE"
        },
        {
            "id": "d1f24261-c178-4f20-890e-47f74fc3287c",
            "data": {
                "group": {
                    "id": "db4819dd-0efb-4290-989c-9f7625b59a3a",
                    "name": "Party Wanted International"
                }
            },
            "seen": false,
            "type": "NEW_CHAT_MESSAGE"
        },
        {
            "id": "43442857-33a7-4e14-9b9d-89f4e9e226cf",
            "data": {
                "group": {
                    "id": "4fd2d648-ad09-4c52-9884-70c7bd4b099c",
                    "name": "The Jobseekers"
                }
            },
            "seen": false,
            "type": "NEW_CHAT_MESSAGE"
        },
        {
            "id": "d98299bf-b0ca-4333-9b78-2f4a7dc16ec9",
            "data": {
                "group": {
                    "id": "4e3605ca-9d84-494b-9151-8626e5207a1b",
                    "name": "El Equipo de Nico Rodsevich"
                }
            },
            "seen": false,
            "type": "NEW_CHAT_MESSAGE"
        },
        {
            "id": "ef4a14b5-2c48-4e98-85e9-76fa875430f7",
            "data": {
                "group": {
                    "id": "59f699a3-9d22-4d6d-b34a-8fcdf2ad1dac",
                    "name": "Short-Term Goal Accountability"
                }
            },
            "seen": false,
            "type": "NEW_CHAT_MESSAGE"
        }
    ],
    "userV": 48336,
    "appVersion": "4.129.1"
}